<?xml version="1.0" encoding="utf-8"?>
<!-- Generator: Adobe Illustrator 14.0.0, SVG Export Plug-In . SVG Version: 6.00 Build 43363)  -->
<!DOCTYPE svg PUBLIC "-//W3C//DTD SVG 1.1//EN" "http://www.w3.org/Graphics/SVG/1.1/DTD/svg11.dtd">
<svg version="1.1" id="Layer_1" xmlns="http://www.w3.org/2000/svg" xmlns:xlink="http://www.w3.org/1999/xlink" x="0px" y="0px"
	 width="47px" height="42.833px" viewBox="3.542 0 47 42.833" enable-background="new 3.542 0 47 42.833" xml:space="preserve">
<g>
	<polygon fill="#0D3234" points="38.729,42.833 36.417,42.833 36.405,2.462 38.684,3.703"/>
	<polygon fill="#124548" points="38.684,3.703 36.405,2.462 47.979,0.836 50.258,2.076"/>
	<polygon fill="#175659" points="50.258,2.076 50.042,42.833 38.729,42.833 38.684,3.703"/>
</g>
<g>
	<polygon fill="#38494A" points="22.604,42.833 20.354,42.833 20.395,19.716 22.674,20.957"/>
	<polygon fill="#4D6566" points="22.674,20.957 20.395,19.716 31.961,18.091 34.241,19.331"/>
	<polygon fill="#5F7D7F" points="34.241,19.331 34.197,42.901 22.604,42.833 22.674,20.957"/>
</g>
<g>
	<polygon fill="#707070" points="6.229,42.833 4.042,42.833 4.11,35.997 6.39,37.236"/>
	<polygon fill="#9B9B9B" points="6.39,37.236 4.11,35.997 15.685,34.37 17.964,35.609"/>
	<polygon fill="#BFBFBF" points="17.964,35.609 17.792,42.833 6.229,42.833 6.39,37.236"/>
</g>
</svg>
